(u'learning', 7066)
(u'data', 6237)
(u'et', 4825)
(u'al', 4805)
(u'algorithm', 4367)
(u'set', 4293)
(u'model', 3998)
(u'using', 3326)
(u'one', 3236)
(u'number', 3182)
(u'used', 2985)
(u'also', 2946)
(u'two', 2729)
(u'problem', 2684)
(u'algorithms', 2487)
(u'approach', 2443)
(u'different', 2429)
(u'models', 2421)
(u';', 2418)
(u'use', 2382)
(u'method', 2375)
(u'methods', 2371)
(u'results', 2370)
(u'function', 2328)
(u'\\', 2280)
(u'training', 2250)
(u'performance', 2119)
(u'time', 2112)
(u'based', 2066)
(u'given', 1893)
(u'first', 1887)
(u'paper', 1854)
(u'case', 1828)
(u'clustering', 1793)
(u'however', 1755)
(u'new', 1669)
(u'probability', 1637)
(u'sect', 1630)
(u'proposed', 1612)
(u'distribution', 1574)
(u'information', 1567)
(u'example', 1528)
(u'space', 1521)
(u'value', 1506)
(u'values', 1482)
(u'show', 1463)
(u'may', 1434)
(u'classification', 1421)
(u'x', 1407)
(u'examples', 1406)
(u'features', 1375)
(u'work', 1363)
(u'feature', 1321)
(u'k', 1320)
(u'class', 1308)
(u'problems', 1269)
(u'thus', 1257)
(u'possible', 1208)
(u'n', 1206)
(u'matrix', 1203)
(u'many', 1194)
(u'since', 1185)
(u'approaches', 1185)
(u'well', 1164)
(u'order', 1159)
(u'parameters', 1138)
(u'state', 1128)
(u'large', 1124)
(u'random', 1118)
(u'd', 1117)
(u'dataset', 1113)
(u'experiments', 1111)
(u'size', 1078)
(u'loss', 1073)
(u'task', 1067)
(u'search', 1061)
(u'functions', 1051)
(u'i.e', 1046)
(u'variables', 1043)
(u'label', 1026)
(u'see', 1022)
(u'inference', 1021)
(u'error', 1017)
(u'sets', 1017)
(u'parameter', 986)
(u'knowledge', 976)
(u'similar', 975)
(u'test', 968)
(u'process', 960)
(u'accuracy', 956)
(u'several', 955)
(u'general', 952)
(u'linear', 948)
(u'better', 946)
(u'section', 943)
(u'consider', 940)
(u'etal', 940)
(u'machine', 937)
(u'analysis', 933)
(u'ranking', 932)
(u'present', 929)
(u'datasets', 928)
(u'instance', 924)
(u'particular', 915)
(u'regression', 907)
(u'best', 904)
(u'structure', 904)
(u'labels', 902)
(u'complexity', 894)
(u'optimal', 892)
(u'sample', 884)
(u'selection', 884)
(u'e.g', 883)
(u'c', 871)
(u'bound', 870)
(u'learn', 869)
(u'kernel', 865)
(u'framework', 864)
(u'classifier', 862)
(u'points', 861)
(u'result', 853)
(u'system', 852)
(u'instances', 842)
(u'positive', 840)
(u'following', 839)
(u'b', 838)
(u'terms', 838)
(u'decision', 831)
(u'setting', 830)
(u'form', 827)
(u'would', 826)
(u'm', 821)
(u'prediction', 821)
(u'p', 818)
(u'provide', 814)
(u'constraints', 808)
(u'single', 806)
(u'cost', 799)
(u'second', 798)
(u'multiple', 782)
(u'network', 774)
(u'solution', 773)
(u'point', 765)
(u'probabilistic', 760)
(u'tree', 760)
(u'standard', 760)
(u'f', 759)
(u'vector', 755)
(u'small', 750)
(u'obtained', 749)
(u'therefore', 739)
(u'even', 739)
(u'shown', 738)
(u'tasks', 737)
(u'optimization', 732)
(u'step', 730)
(u'measure', 724)
(u'important', 723)
(u'computational', 719)
(u'applied', 719)
(u'input', 718)
(u'defined', 706)
(u'high', 703)
(u'concept', 697)
(u'previous', 692)
(u'could', 691)
(u'related', 684)
(u'known', 681)
(u'clusters', 680)
(u'prior', 677)
(u'learned', 677)
(u'three', 673)
(u'considered', 671)
(u'way', 670)
(u'presented', 670)
(u'sampling', 670)
(u'efficient', 664)
(u'note', 662)
(u'domain', 658)
(u'relational', 656)
(u'rate', 656)
(u'target', 648)
(u'often', 646)
(u'evaluation', 644)
(u'hypothesis', 644)
(u'cluster', 639)
(u'techniques', 638)
(u'called', 638)
(u'output', 633)
(u'samples', 633)
(u'empirical', 632)
(u'variable', 629)
(u'y', 629)
(u'classifiers', 627)
(u'estimation', 624)
(u'compared', 623)
(u'study', 619)
(u'binary', 618)
(u'within', 617)
(u'corresponding', 617)
(u'policy', 616)
(u'rules', 616)
(u'good', 611)
(u'propose', 609)
(u'described', 604)
(u'r', 604)
(u'graph', 601)
(u'true', 599)
(u'objects', 599)
(u'much', 595)
(u'without', 593)
(u'average', 590)
(u'topic', 586)
(u'distributions', 585)
(u'available', 584)
(u'networks', 584)
(u'found', 583)
(u'conditional', 582)
(u'simple', 582)
(u'approximation', 579)
(u'us', 578)
(u'alternative', 577)
(u'attributes', 573)
(u'representation', 563)
(u'distance', 563)
(u'learner', 562)
(u'among', 557)
(u'systems', 556)
(u'applications', 554)
(u'language', 554)
(u'theorem', 552)
(u'find', 551)
(u'logic', 548)
(u'observed', 547)
(u'ensemble', 545)
(u'cases', 544)
(u'need', 544)
(u'convex', 544)
(u'due', 543)
(u'hence', 538)
(u'states', 538)
(u'let', 538)
(u'instead', 538)
(u'uses', 537)
(u'rather', 536)
(u'generated', 536)
(u'make', 536)
(u'current', 535)
(u'expected', 533)
(u'classes', 533)
(u'assumption', 532)
(u'theory', 532)
(u'finite', 532)
(u'compare', 529)
(u'online', 529)
(u'original', 527)
(u'sequence', 527)
(u'main', 526)
(u'estimate', 523)
(u'l', 523)
(u'specific', 523)
(u'fact', 523)
(u'level', 521)
(u'natural', 521)
(u'every', 519)
(u'respect', 519)
(u'theoretical', 517)
(u'least', 517)
(u'node', 517)
(u'convergence', 515)
(u'mean', 515)
(u'strategy', 512)
(u'goal', 507)
(u'active', 505)
(u'bayesian', 505)
(u'lower', 503)
(u'negative', 503)
(u'maximum', 501)
(u'users', 501)
(u'less', 499)
(u'user', 497)
(u'change', 494)
(u'noise', 492)
(u'preference', 490)
(u'experimental', 490)
(u'gaussian', 490)
(u'next', 489)
(u'statistical', 489)
(u'gradient', 489)
(u'\\(\\mathcal', 487)
(u'directly', 483)
(u'rule', 483)
(u'queries', 482)
(u'according', 479)
(u'perform', 478)
(u'bayes', 476)
(u'real', 476)
(u'improve', 475)
(u'significantly', 474)
(u'procedure', 474)
(u'like', 471)
(u'requires', 471)
(u'regularization', 471)
(u'generalization', 470)
(u'selected', 468)
(u'application', 466)
(u'choice', 464)
(u'measures', 462)
(u'another', 461)
(u'assume', 461)
(u'existing', 461)
(u'properties', 461)
(u'provides', 460)
(u'solutions', 460)
(u'version', 459)
(u'similarity', 459)
(u'shows', 457)
(u'allows', 456)
(u'pairs', 455)
(u'nodes', 455)
(u'subset', 454)
(u'probabilities', 454)
(u'j', 453)
(u'words', 453)
(u'bounds', 452)
(u'fixed', 449)
(u'iteration', 449)
(u'addition', 449)
(u'context', 447)
(u'table', 444)
(u'able', 442)
(u'finally', 441)
(u'whether', 441)
(u'additional', 440)
(u'contains', 439)
(u'basis', 437)
(u'domains', 436)
(u'associated', 435)
(u'describe', 435)
(u'various', 434)
(u'obtain', 433)
(u'trees', 431)
(u'rank', 431)
(u'}', 430)
(u'type', 429)
(u'means', 428)
(u'vectors', 428)
(u'\\in', 427)
(u'sparse', 427)
(u'provided', 427)
(u'computed', 427)
(u'weights', 426)
(u'research', 425)
(u'higher', 425)
(u'object', 425)
(u'proof', 425)
(u'difference', 424)
(u'including', 423)
(u'times', 423)
(u'hand', 422)
(u'quality', 420)
(u'markov', 419)
(u'might', 418)
(u'likelihood', 415)
(u'either', 415)
(u'still', 414)
(u'discuss', 412)
(u'local', 409)
(u'define', 408)
(u'objective', 407)
(u'support', 407)
(u'resulting', 407)
(u'cannot', 407)
(u'although', 406)
(u'score', 403)
(u'comparison', 403)
(u'q', 400)
(u'interesting', 398)
(u'variance', 396)
(u'base', 395)
(u'total', 394)
(u'common', 393)
(u'actions', 393)
(u'larger', 392)
(u'idea', 392)
(u'ground', 391)
(u'h', 391)
(u'independent', 390)
(u'must', 390)
(u'clause', 389)
(u'clauses', 388)
(u'introduced', 388)
(u'estimates', 388)
(u'detection', 385)
(u'missing', 383)
(u'evaluate', 383)
(u'novel', 382)
(u'factor', 382)
(u'individual', 381)
(u'compute', 381)